{
  "project_info": {
    "project_number": "620201807903",
    "firebase_url": "https://smart-carhire.firebaseio.com",
    "project_id": "smart-carhire",
    "storage_bucket": "smart-carhire.appspot.com"
  },
  "client": [
    {
      "client_info": {
        "mobilesdk_app_id": "1:620201807903:android:a2aa53b34558dd8a",
        "android_client_info": {
          "package_name": "com.smarthire.cars"
        }
      },
      "oauth_client": [
        {
          "client_id": "620201807903-8rmfcgbhhj4lg2jvik5fa0bptc2aqra8.apps.googleusercontent.com",
          "client_type": 1,
          "android_info": {
            "package_name": "com.smarthire.cars",
            "certificate_hash": "08dc6de0ebe1a62d2ffa24f73edf12b04859d535"
          }
        },
        {
          "client_id": "620201807903-o15ks13mcg74qvm9mj60occ8u819m7f4.apps.googleusercontent.com",
          "client_type": 3
        }
      ],
      "api_key": [
        {
          "current_key": "AIzaSyD3P0I9jpd5SAq1iYoz_7zCwso7wYKQwyk"
        }
      ],
      "services": {
        "analytics_service": {
          "status": 1
        },
        "appinvite_service": {
          "status": 2,
          "other_platform_oauth_client": [
            {
              "client_id": "620201807903-o15ks13mcg74qvm9mj60occ8u819m7f4.apps.googleusercontent.com",
              "client_type": 3
            }
          ]
        },
        "ads_service": {
          "status": 2
        }
      }
    }
  ],
  "configuration_version": "1"
}